{"hash":"a086ff21b08d1e8a488bb9f63a1e3316a1f52c45","data":{"posts":{"totalCount":8,"pageInfo":{"totalPages":3,"currentPage":3},"edges":[{"node":{"id":"c5705a06684d398131fddf02922a4f68","title":"Mac Pro 2019 Review","date":"March 11, 2019","summary":"Lorem ipsum dolor sit amet consectetur adipisicing elit. Hic rerum earum quos explicabo suscipit maxime iste qui nihil. Reiciendis asperiores minus necessitatibus","timeToRead":1,"path":"/mac-pro-2019-review"}},{"node":{"id":"af0d9dba9c692ec4508c46e2a45443cf","title":"Design for Developers","date":"March 7, 2019","summary":"Lorem ipsum dolor sit amet consectetur adipisicing elit. Hic rerum earum quos explicabo suscipit maxime iste qui nihil. Reiciendis asperiores minus necessitatibus","timeToRead":1,"path":"/design-for-developers"}}]}},"context":{}}