{"hash":"a086ff21b08d1e8a488bb9f63a1e3316a1f52c45","data":{"posts":{"totalCount":8,"pageInfo":{"totalPages":3,"currentPage":2},"edges":[{"node":{"id":"41145f007967d6957877e6aa34b40e0e","title":"Vue vs React Comparison","date":"March 27, 2019","summary":"Lorem ipsum dolor sit amet consectetur adipisicing elit. Hic rerum earum quos explicabo suscipit maxime iste qui nihil. Reiciendis asperiores minus necessitatibus","timeToRead":1,"path":"/vue-vs-react-comparison"}},{"node":{"id":"82256aebd04350291b948800a1d8d25f","title":"What I Ate for Breakfast","date":"March 21, 2019","summary":"Lorem ipsum dolor sit amet consectetur adipisicing elit. Hic rerum earum quos explicabo suscipit maxime iste qui nihil. Reiciendis asperiores minus necessitatibus","timeToRead":1,"path":"/what-i-ate-for-breakfast"}},{"node":{"id":"a24352142d4d35105c71ff61e0043739","title":"Freelance vs Full Time Work","date":"March 17, 2019","summary":"Lorem ipsum dolor sit amet consectetur adipisicing elit. Hic rerum earum quos explicabo suscipit maxime iste qui nihil. Reiciendis asperiores minus necessitatibus","timeToRead":1,"path":"/freelance-vs-full-time-work"}}]}},"context":{}}