{"hash":"a086ff21b08d1e8a488bb9f63a1e3316a1f52c45","data":{"posts":{"totalCount":8,"pageInfo":{"totalPages":3,"currentPage":1},"edges":[{"node":{"id":"0efe435afa8d4183b19a18494807e0a7","title":"Introduction to Gridsome","date":"April 8, 2019","summary":"Gridsome is a Vue.js-powered, modern site generator for building the fastest possible websites for any Headless CMS, APIs or Markdown-files. Gridsome makes it easy and fun for developers to create fast, beautiful websites without needing to become a performance expert.","timeToRead":1,"path":"/introduction-to-gridsome"}},{"node":{"id":"bd7891396aa268a1328c74b3a6774c8b","title":"How to Get Better At Coding","date":"April 5, 2019","summary":"Lorem ipsum dolor sit amet consectetur adipisicing elit. Hic rerum earum quos explicabo suscipit maxime iste qui nihil. Reiciendis asperiores minus necessitatibus","timeToRead":2,"path":"/how-to-get-better-at-coding"}},{"node":{"id":"2d57b5c72ecbf6c0f9fba48c1d1ebd83","title":"Top 5 Static Site Generators in Vue","date":"April 3, 2019","summary":"Lorem ipsum dolor sit amet consectetur adipisicing elit. Hic rerum earum quos explicabo suscipit maxime iste qui nihil. Reiciendis asperiores minus necessitatibus","timeToRead":1,"path":"/top-5-static-site-generators-in-vue"}}]}},"context":{}}